decision_tree_demo/can_attack_detector.vcd
$date
	Thu Nov 06 06:40:56 2025
$end
$version
	Icarus Verilog
$end
$timescale
	1ps
$end
$scope module tb_can_attack_detector_top $end
$var wire 5 ! tree_depth [4:0] $end
$var wire 1 " is_attack $end
$var wire 9 # final_node [8:0] $end
$var wire 1 $ done $end
$var wire 2 % attack_class [1:0] $end
$var reg 1 & clk $end
$var reg 1 ' rst_n $end
$var reg 1 ( start $end
$scope module dut $end
$var wire 1 & clk $end
$var wire 64 ) feature_00 [63:0] $end
$var wire 64 * feature_01 [63:0] $end
$var wire 64 + feature_10 [63:0] $end
$var wire 1 ' rst_n $end
$var wire 1 ( start $end
$var wire 5 , tree_depth [4:0] $end
$var wire 64 - mem_threshold [63:0] $end
$var wire 9 . mem_right_child [8:0] $end
$var wire 2 / mem_prediction [1:0] $end
$var wire 9 0 mem_node_id [8:0] $end
$var wire 9 1 mem_left_child [8:0] $end
$var wire 1 2 mem_is_leaf $end
$var wire 2 3 mem_feature_idx [1:0] $end
$var wire 1 4 mem_data_valid $end
$var wire 9 5 mem_addr [8:0] $end
$var wire 1 " is_attack $end
$var wire 9 6 final_node [8:0] $end
$var wire 3 7 engine_state [2:0] $end
$var wire 1 8 engine_busy $end
$var wire 1 $ done $end
$var wire 9 9 current_node [8:0] $end
$var wire 2 : attack_class [1:0] $end
$var parameter 96 ; FEATURE_FILE $end
$var parameter 32 < MAX_DEPTH $end
$var parameter 32 = TREE_DEPTH $end
$var parameter 64 > TREE_FILE $end
$scope module engine $end
$var wire 1 & clk $end
$var wire 64 ? feature_00 [63:0] $end
$var wire 64 @ feature_01 [63:0] $end
$var wire 64 A feature_10 [63:0] $end
$var wire 1 ' rst_n $end
$var wire 1 ( start $end
$var wire 64 B mem_threshold [63:0] $end
$var wire 9 C mem_right_child [8:0] $end
$var wire 2 D mem_prediction [1:0] $end
$var wire 9 E mem_node_id [8:0] $end
$var wire 9 F mem_left_child [8:0] $end
$var wire 1 2 mem_is_leaf $end
$var wire 2 G mem_feature_idx [1:0] $end
$var wire 1 4 mem_data_valid $end
$var wire 1 H go_left $end
$var parameter 3 I COMPARE $end
$var parameter 3 J DECIDE $end
$var parameter 3 K ERROR $end
$var parameter 3 L IDLE $end
$var parameter 3 M LOAD_NODE $end
$var parameter 32 N MAX_DEPTH $end
$var parameter 3 O OUTPUT_RESULT $end
$var parameter 3 P WAIT_MEM $end
$var reg 1 8 busy $end
$var reg 1 Q comparison_result $end
$var reg 9 R current_node [8:0] $end
$var reg 1 $ done $end
$var reg 9 S final_node_id [8:0] $end
$var reg 1 " is_attack $end
$var reg 9 T mem_addr [8:0] $end
$var reg 2 U result [1:0] $end
$var reg 64 V selected_feature [63:0] $end
$var reg 3 W state [2:0] $end
$var reg 5 X tree_depth [4:0] $end
$var reg 2 Y wait_counter [1:0] $end
$scope module comparator $end
$var wire 64 Z feature [63:0] $end
$var wire 1 H go_left $end
$var wire 32 [ threshold_int [31:0] $end
$var wire 32 \ threshold_frac [31:0] $end
$var wire 64 ] threshold [63:0] $end
$var wire 1 ^ int_less $end
$var wire 1 _ int_equal $end
$var wire 1 ` frac_less_or_equal $end
$var wire 32 a feature_int [31:0] $end
$var wire 32 b feature_frac [31:0] $end
$upscope $end
$upscope $end
$scope module tree_mem $end
$var wire 1 & clk $end
$var wire 9 c node_addr [8:0] $end
$var wire 1 d read_enable $end
$var wire 1 ' rst_n $end
$var parameter 64 e MEM_INIT_FILE $end
$var parameter 32 f NODE_WIDTH $end
$var parameter 32 g TREE_DEPTH $end
$var reg 1 4 data_valid $end
$var reg 2 h feature_idx [1:0] $end
$var reg 1 2 is_leaf $end
$var reg 9 i left_child [8:0] $end
$var reg 95 j node_data [94:0] $end
$var reg 9 k node_id [8:0] $end
$var reg 2 l prediction [1:0] $end
$var reg 9 m prev_addr [8:0] $end
$var reg 9 n right_child [8:0] $end
$var reg 64 o threshold [63:0] $end
$upscope $end
$upscope $end
$upscope $end
$enddefinitions $end
$comment Show the parameter values. $end
$dumpall
b1000000000 g
b1011111 f
b111010001110010011001010110010100101110011011010110010101101101 e
b10 P
b101 O
b10100 N
b1 M
b0 L
b110 K
b100 J
b11 I
b111010001110010011001010110010100101110011011010110010101101101 >
b1000000000 =
b10100 <
b11001100110010101100001011101000111010101110010011001010111001100101110011011010110010101101101 ;
$end
#0
$dumpvars
b0 o
b0 n
b0 m
b0 l
b0 k
b0 j
b0 i
b0 h
1d
b0 c
b0 b
b0 a
1`
1_
0^
b0 ]
b0 \
b0 [
b0 Z
b0 Y
b0 X
b0 W
b0 V
b0 U
b0 T
b0 S
b0 R
0Q
1H
b0 G
b0 F
b0 E
b0 D
b0 C
b0 B
b1111001010100101001101010100000000110111101010101100111010 A
b11000101 @
b1100011101100001100111010011101 ?
b0 :
b0 9
08
b0 7
b0 6
b0 5
04
b0 3
02
b0 1
b0 0
b0 /
b0 .
b0 -
b0 ,
b1111001010100101001101010100000000110111101010101100111010 +
b11000101 *
b1100011101100001100111010011101 )
0(
0'
0&
b0 %
0$
b0 #
0"
b0 !
$end
#5000
1&
#10000
0&
#15000
1&
#20000
0&
1'
#25000
b1110110001001001110101110100011 \
14
b10110010 .
b10110010 C
b10110010 n
b1 1
b1 F
b1 i
b1110110001001001110101110100011 -
b1110110001001001110101110100011 B
b1110110001001001110101110100011 ]
b1110110001001001110101110100011 o
b111011000100100111010111010001100000000101011001000 j
1&
#30000
0&
#35000
1&
#40000
0&
#45000
1&
#50000
0&
#55000
1&
#60000
0&
#65000
1&
#70000
0&
1(
#75000
b1 7
b1 W
18
1&
#80000
0&
0(
#85000
b10 7
b10 W
1&
#90000
0&
#95000
b1 Y
1&
#100000
0&
#105000
b10 Y
1&
#110000
0&
#115000
b11 7
b11 W
1&
#120000
0&
#125000
b1100011101100001100111010011101 b
b100 7
b100 W
1Q
b1100011101100001100111010011101 V
b1100011101100001100111010011101 Z
1&
#130000
0&
#135000
b1 7
b1 W
b1 !
b1 ,
b1 X
b1 9
b1 R
1&
#140000
0&
#145000
b10 7
b10 W
b0 Y
b1 5
b1 T
b1 c
1&
#150000
0&
#155000
0H
0`
b11100011 \
b1 m
b11 .
b11 C
b11 n
b10 1
b10 F
b10 i
b11100011 -
b11100011 B
b11100011 ]
b11100011 o
b1 3
b1 G
b1 h
b1 0
b1 E
b1 k
b101000000000000000000000000000000000000000000000000000000001110001100000001000000001100 j
b1 Y
1&
#160000
0&
#165000
b10 Y
1&
#170000
0&
#175000
b11 7
b11 W
1&
#180000
0&
#185000
1H
1`
b11000101 b
b100 7
b100 W
0Q
b11000101 V
b11000101 Z
1&
#190000
0&
#195000
b1 7
b1 W
b10 !
b10 ,
b10 X
b11 9
b11 R
1&
#200000
0&
#205000
b10 7
b10 W
b0 Y
b11 5
b11 T
b11 c
1&
#210000
0&
#215000
b10011100111010110000010000000000 \
1^
0_
b1011110110011100000110100000000 [
b11 m
b1111001 .
b1111001 C
b1111001 n
b100 1
b100 F
b100 i
b101111011001110000011010000000010011100111010110000010000000000 -
b101111011001110000011010000000010011100111010110000010000000000 B
b101111011001110000011010000000010011100111010110000010000000000 ]
b101111011001110000011010000000010011100111010110000010000000000 o
b10 3
b10 G
b10 h
b11 0
b11 E
b11 k
b1110010111101100111000001101000000001001110011101011000001000000000000000010000111100100 j
b1 Y
1&
#220000
0&
#225000
b10 Y
1&
#230000
0&
#235000
b11 7
b11 W
1&
#240000
0&
#245000
b11110010101001010011010101 a
b110111101010101100111010 b
b100 7
b100 W
1Q
b1111001010100101001101010100000000110111101010101100111010 V
b1111001010100101001101010100000000110111101010101100111010 Z
1&
#250000
0&
#255000
b1 7
b1 W
b11 !
b11 ,
b11 X
b100 9
b100 R
1&
#260000
0&
#265000
b10 7
b10 W
b0 Y
b100 5
b100 T
b100 c
1&
#270000
0&
#275000
0H
b11000111100011011110011101110000 \
0^
b100101111011011101011001 [
b100 m
b111110 .
b111110 C
b111110 n
b101 1
b101 F
b101 i
b10010111101101110101100111000111100011011110011101110000 -
b10010111101101110101100111000111100011011110011101110000 B
b10010111101101110101100111000111100011011110011101110000 ]
b10010111101101110101100111000111100011011110011101110000 o
b100 0
b100 E
b100 k
b10010000000001001011110110111010110011100011110001101111001110111000000000010100011111000 j
b1 Y
1&
#280000
0&
#285000
b10 Y
1&
#290000
0&
#295000
b11 7
b11 W
1&
#300000
0&
#305000
b100 7
b100 W
0Q
1&
#310000
0&
#315000
b1 7
b1 W
b100 !
b100 ,
b100 X
b111110 9
b111110 R
1&
#320000
0&
#325000
b10 7
b10 W
b0 Y
b111110 5
b111110 T
b111110 c
1&
#330000
0&
#335000
b1110110001001001110101100001100 \
b0 [
b111110 m
b1011110 .
b1011110 C
b1011110 n
b111111 1
b111111 F
b111111 i
b1110110001001001110101100001100 -
b1110110001001001110101100001100 B
b1110110001001001110101100001100 ]
b1110110001001001110101100001100 o
b0 3
b0 G
b0 h
b111110 0
b111110 E
b111110 k
b11111000000000000000000000000000000000000111011000100100111010110000110000011111100101111000 j
b1 Y
1&
#340000
0&
#345000
b10 Y
1&
#350000
0&
#355000
b11 7
b11 W
1&
#360000
0&
#365000
1H
1_
b0 a
b1100011101100001100111010011101 b
b100 7
b100 W
b1100011101100001100111010011101 V
b1100011101100001100111010011101 Z
1&
#370000
0&
#375000
b1 7
b1 W
b101 !
b101 ,
b101 X
b1011110 9
b1011110 R
1&
#380000
0&
#385000
b10 7
b10 W
b0 Y
b1011110 5
b1011110 T
b1011110 c
1&
#390000
0&
#395000
0`
b11011011010101001001110000000 \
1^
0_
b1010001111001000000100100110 [
b1011110 m
b1101010 .
b1101010 C
b1101010 n
b1011111 1
b1011111 F
b1011111 i
b101000111100100000010010011000011011011010101001001110000000 -
b101000111100100000010010011000011011011010101001001110000000 B
b101000111100100000010010011000011011011010101001001110000000 ]
b101000111100100000010010011000011011011010101001001110000000 o
b10 3
b10 G
b10 h
b1011110 0
b1011110 E
b1011110 k
b101111010000010100011110010000001001001100001101101101010100100111000000000101111100110101000 j
b1 Y
1&
#400000
0&
#405000
b10 Y
1&
#410000
0&
#415000
b11 7
b11 W
1&
#420000
0&
#425000
b11110010101001010011010101 a
1`
b110111101010101100111010 b
b100 7
b100 W
1Q
b1111001010100101001101010100000000110111101010101100111010 V
b1111001010100101001101010100000000110111101010101100111010 Z
1&
#430000
0&
#435000
b1 7
b1 W
b110 !
b110 ,
b110 X
b1011111 9
b1011111 R
1&
#440000
0&
#445000
b10 7
b10 W
b0 Y
b1011111 5
b1011111 T
b1011111 c
1&
#450000
0&
#455000
0H
b11111111100100001110011010010000 \
0^
b1001011110111001101111001 [
b1011111 m
b1100101 .
b1100101 C
b1100101 n
b1100000 1
b1100000 F
b1100000 i
b100101111011100110111100111111111100100001110011010010000 -
b100101111011100110111100111111111100100001110011010010000 B
b100101111011100110111100111111111100100001110011010010000 ]
b100101111011100110111100111111111100100001110011010010000 o
b1011111 0
b1011111 E
b1011111 k
b101111110000000010010111101110011011110011111111110010000111001101001000000110000000110010100 j
b1 Y
1&
#460000
0&
#465000
b10 Y
1&
#470000
0&
#475000
b11 7
b11 W
1&
#480000
0&
#485000
b100 7
b100 W
0Q
1&
#490000
0&
#495000
b1 7
b1 W
b111 !
b111 ,
b111 X
b1100101 9
b1100101 R
1&
#500000
0&
#505000
b10 7
b10 W
b0 Y
b1100101 5
b1100101 T
b1100101 c
1&
#510000
0&
#515000
0`
b11000100100 \
b0 [
b1100101 m
b1101001 .
b1101001 C
b1101001 n
b1100110 1
b1100110 F
b1100110 i
b11000100100 -
b11000100100 B
b11000100100 ]
b11000100100 o
b1 3
b1 G
b1 h
b1100101 0
b1100101 E
b1100101 k
b110010101000000000000000000000000000000000000000000000000000001100010010000110011000110100100 j
b1 Y
1&
#520000
0&
#525000
b10 Y
1&
#530000
0&
#535000
b11 7
b11 W
1&
#540000
0&
#545000
1H
1_
b0 a
1`
b11000101 b
b100 7
b100 W
b11000101 V
b11000101 Z
1&
#550000
0&
#555000
b1 7
b1 W
b1000 !
b1000 ,
b1000 X
b1101001 9
b1101001 R
1&
#560000
0&
#565000
b10 7
b10 W
b0 Y
b1101001 5
b1101001 T
b1101001 c
1&
#570000
0&
#575000
0H
0`
b0 \
b1101001 m
12
b1 /
b1 D
b1 l
b0 .
b0 C
b0 n
b0 1
b0 F
b0 i
b0 -
b0 B
b0 ]
b0 o
b11 3
b11 G
b11 h
b1101001 0
b1101001 E
b1101001 k
b110100111000000000000000000000000000000000000000000000000000000000000000000000000000000000001 j
b1 Y
1&
#580000
0&
#585000
b10 Y
1&
#590000
0&
#595000
b101 7
b101 W
b1101001 #
b1101001 6
b1101001 S
1"
b1 %
b1 :
b1 U
1&
#600000
0&
#605000
b0 7
b0 W
08
1$
1&
#610000
0&
#615000
0$
1&
